<svg width="45" height="45" viewBox="0 0 45 45" fill="none" xmlns="http://www.w3.org/2000/svg">
<g clip-path="url(#clip0)">
<path d="M45 22.5C45 34.9266 34.9266 45 22.5 45C10.0734 45 0 34.9266 0 22.5C0 10.0734 10.0734 0 22.5 0C34.9266 0 45 10.0734 45 22.5Z" fill="#0069E7"/>
<path d="M45 22.5C45 34.9266 34.9266 45 22.5 45C10.0734 45 0 34.9266 0 22.5C0 10.0734 10.0734 0 22.5 0C34.9266 0 45 10.0734 45 22.5Z" fill="url(#paint0_linear)"/>
<path d="M30.457 10.4148V16.1679C30.457 16.1679 23.8519 15.2091 23.8519 19.4704V23.7317H29.8177L29.0723 30.2302H23.8519V47.169H17.2468V30.2302L11.6004 30.1236V23.7317H17.1402V18.8311C17.1402 18.8311 16.7746 11.541 23.9585 10.202C26.9416 9.6457 30.457 10.4148 30.457 10.4148V10.4148Z" fill="white"/>
</g>
<defs>
<linearGradient id="paint0_linear" x1="22.5" y1="0" x2="22.5" y2="45" gradientUnits="userSpaceOnUse">
<stop stop-color="#10AFFE"/>
<stop offset="1" stop-color="#0066E7"/>
</linearGradient>
<clipPath id="clip0">
<rect width="45" height="45" fill="white"/>
</clipPath>
</defs>
</svg>
