<svg width="270" height="260" viewBox="0 0 270 260" fill="none" xmlns="http://www.w3.org/2000/svg">
<g clip-path="url(#clip0)">
<g style="mix-blend-mode:multiply">
<ellipse cx="184.396" cy="78.3938" rx="51.0527" ry="52.3492" fill="#F0F3F8"/>
<ellipse cx="76.1623" cy="147.951" rx="68.9988" ry="70.751" fill="#F0F3F8"/>
<ellipse cx="17.0754" cy="42.9525" rx="17.0754" ry="17.0658" fill="#F0F3F8"/>
<ellipse cx="204.73" cy="143.175" rx="64.8508" ry="66.4976" fill="#F0F3F8"/>
<path d="M188.728 179.225H72.6814V233.698H188.728V179.225Z" fill="#1D2536"/>
<path d="M67.8951 0H194.081V211.683H67.8951V0Z" fill="#4ACB27"/>
<path opacity="0.1" d="M72.6797 3.66925H194.359L193.796 211.965L72.398 211.683L72.6797 3.66925Z" fill="black"/>
<path d="M67.8951 22.5795L194.081 74.23V189.385L67.8951 141.404V22.5795Z" fill="#57D535"/>
<path opacity="0.51" d="M193.518 91.7293V107.253L67.8951 51.6507V36.1273L193.518 91.7293Z" fill="white"/>
<path d="M188.728 226.077H180.842L184.222 241.318H188.728V226.077Z" fill="#1D2536"/>
<path d="M79.4414 226.077H72.6814V241.318H76.6247L79.4414 226.077Z" fill="#1D2536"/>
<path d="M175.773 213.941H83.3866V231.44H175.773V213.941Z" fill="#0E111A"/>
<path d="M172.673 213.094H170.139V232.851H172.673V213.094Z" fill="#32415B"/>
<path d="M167.039 213.094H164.506V232.851H167.039V213.094Z" fill="#32415B"/>
<path d="M161.406 213.094H158.872V232.851H161.406V213.094Z" fill="#32415B"/>
<path d="M155.773 213.094H153.239V232.851H155.773V213.094Z" fill="#32415B"/>
<path d="M150.139 213.094H147.606V232.851H150.139V213.094Z" fill="#32415B"/>
<path d="M144.506 213.094H141.973V232.851H144.506V213.094Z" fill="#32415B"/>
<path d="M138.873 213.094H136.339V232.851H138.873V213.094Z" fill="#32415B"/>
<path d="M132.959 213.094H130.425V232.851H132.959V213.094Z" fill="#32415B"/>
<path d="M127.326 213.094H124.792V232.851H127.326V213.094Z" fill="#32415B"/>
<path d="M121.692 213.094H119.159V232.851H121.692V213.094Z" fill="#32415B"/>
<path d="M116.059 213.094H113.526V232.851H116.059V213.094Z" fill="#32415B"/>
<path d="M110.426 213.094H107.892V232.851H110.426V213.094Z" fill="#32415B"/>
<path d="M104.793 213.094H102.259V232.851H104.793V213.094Z" fill="#32415B"/>
<path d="M99.1589 213.094H96.6254V232.851H99.1589V213.094Z" fill="#32415B"/>
<path d="M93.5259 213.094H90.9924V232.851H93.5259V213.094Z" fill="#32415B"/>
<path d="M87.6093 213.094H85.0757V232.851H87.6093V213.094Z" fill="#32415B"/>
<path d="M79.442 9.59625H181.968V204.909H79.442V9.59625Z" fill="#6D2525"/>
<path d="M81.9785 11.854L179.716 11.854V202.651H81.9785V11.854Z" fill="#E3FFFE"/>
<path d="M83.6673 13.83L177.743 13.83V200.393H83.6673V13.83Z" fill="#B5E8E5"/>
<path d="M83.9507 151.001L177.464 151.001V188.821H83.9507V151.001Z" fill="#87C1BC"/>
<path d="M83.9507 106.688H177.464V147.896H83.9507V106.688Z" fill="#87C1BC"/>
<path d="M83.9507 62.9404L177.464 64.3516V104.148H83.9507V62.9404Z" fill="#87C1BC"/>
<path d="M83.9507 16.0878H177.464V60.6822H83.9507V16.0878Z" fill="#87C1BC"/>
<path d="M89.6603 20.7692L171.625 20.7692V57.1786H89.6603V20.7692Z" fill="#64A098"/>
<path d="M89.6603 64.7993H171.625V100.926H89.6603V64.7993Z" fill="#64A098"/>
<path d="M89.6603 108.265H171.343V144.674H89.6603V108.265Z" fill="#64A098"/>
<path d="M89.6603 150.037H171.625V186.164H89.6603V150.037Z" fill="#64A098"/>
<path d="M179.154 146.202H83.1063V148.46H179.154V146.202Z" fill="#E3FFFE"/>
<path d="M179.154 102.736H83.1063V104.994H179.154V102.736Z" fill="#E3FFFE"/>
<path d="M179.154 60.9498H83.1063V63.2078H179.154V60.9498Z" fill="#E3FFFE"/>
<path d="M179.154 187.692H83.1063V189.95H179.154V187.692Z" fill="#E3FFFE"/>
<path d="M95.3264 41.9483C95.3264 41.1016 96.1714 40.2549 97.0163 40.2549H104.058C105.185 40.2549 106.03 41.1016 106.03 42.2306V56.9073C106.03 58.0362 105.185 58.6007 104.058 58.6007H97.0163C95.8897 58.6007 95.0447 57.754 95.0447 56.625V41.9483H95.3264Z" fill="#F44D4D"/>
<path d="M104.902 39.9738H96.4521V40.8205H104.902V39.9738Z" fill="#FFBDBD"/>
<path d="M95.325 52.6747V43.9252C96.17 45.0541 97.5783 45.9009 99.2683 46.1831C100.958 46.7476 103.775 48.1588 106.31 50.1345V56.9084C106.31 58.0374 105.465 58.6018 104.338 58.6018H103.212C101.522 56.0616 97.86 53.8037 95.325 52.6747Z" fill="#FFBDBD"/>
<path d="M111.1 41.9483C111.1 41.1016 111.945 40.2549 112.79 40.2549H119.831C120.958 40.2549 121.803 41.1016 121.803 42.2306V56.9073C121.803 58.0362 120.958 58.6007 119.831 58.6007H113.072C111.945 58.6007 111.1 57.754 111.1 56.625V41.9483Z" fill="#F44D4D"/>
<path d="M120.677 39.9738H112.227V40.8205H120.677V39.9738Z" fill="#FFBDBD"/>
<path d="M111.1 52.6747V43.9252C111.945 45.0541 113.353 45.9009 115.043 46.1831C116.733 46.7476 119.55 48.1588 122.085 50.1345V56.9084C122.085 58.0374 121.24 58.6018 120.113 58.6018H118.986C117.296 56.0616 113.635 53.8037 111.1 52.6747Z" fill="#FFBDBD"/>
<path d="M126.593 41.9483C126.593 41.1016 127.438 40.2549 128.283 40.2549H135.607C136.733 40.2549 137.578 41.1016 137.578 42.2306V56.9073C137.578 58.0362 136.733 58.6007 135.607 58.6007H128.565C127.438 58.6007 126.593 57.754 126.593 56.625V41.9483Z" fill="#F44D4D"/>
<path d="M136.451 39.9738H128.001V40.8205H136.451V39.9738Z" fill="#FFBDBD"/>
<path d="M126.593 52.6747V43.9252C127.438 45.0541 128.847 45.9009 130.537 46.1831C132.227 46.7476 135.043 48.1588 137.578 50.1345V56.9084C137.578 58.0374 136.733 58.6018 135.607 58.6018H134.48C133.072 56.0616 129.128 53.8037 126.593 52.6747Z" fill="#FFBDBD"/>
<path opacity="0.6" d="M179.435 120.236L81.9785 77.0528V29.0714L179.435 70.279V120.236Z" fill="#D2FFFE"/>
<path opacity="0.6" d="M81.9785 102.737V89.1888L179.435 130.114V143.662L81.9785 102.737Z" fill="#D2FFFE"/>
<path d="M73.8074 0.846802H72.6814V211.683H73.8074V0.846802Z" fill="#752929"/>
<path d="M81.9785 89.1886L89.0202 97.0914V119.389L81.9785 128.42V89.1886Z" fill="#84BFBB"/>
<path d="M77.7539 89.7537L85.9222 97.6565V119.954L76.9089 128.986L77.7539 89.7537Z" fill="#39B019"/>
<path d="M82.5412 98.7855L75.7812 92.0116V89.7537L83.6678 97.6565V119.954L82.5412 121.083V98.7855Z" fill="#08C792"/>
</g>
<path d="M111.146 166.588L104.463 172.147L105.047 251.635L111.268 238.816L111.146 166.588Z" fill="url(#paint0_linear)"/>
<path d="M111.146 166.588L48.2494 166.95L47.4363 173.237L42.1951 179.496L104.46 178.993L104.463 172.147L111.146 166.588Z" fill="url(#paint1_linear)"/>
<path d="M89.2289 173.835C89.1185 161.58 84.6897 151.684 79.3369 151.732C73.984 151.78 69.7342 161.754 69.8445 174.009" stroke="#525759" stroke-width="2" stroke-linecap="round"/>
<path d="M84.1126 182.246C84.0022 169.991 79.5734 160.095 74.2206 160.144C68.8677 160.192 64.6179 170.166 64.7283 182.421" stroke="#525759" stroke-width="2" stroke-linecap="round"/>
<path d="M104.458 178.993L42.1929 179.494L39.8874 252.011L105.047 251.635L104.458 178.993Z" fill="url(#paint2_linear)"/>
<path fill-rule="evenodd" clip-rule="evenodd" d="M66.1843 212.303C71.3884 206.092 82.2573 206.322 82.2573 206.322C82.2573 206.322 84.6883 216.617 79.4851 222.824C74.2819 229.031 63.4122 228.804 63.4122 228.804C63.4122 228.804 60.9805 218.51 66.1843 212.303Z" fill="#5FDA3E"/>
<path d="M261.436 249.852C261.436 255.208 233.589 259.55 199.238 259.55C164.886 259.55 137.039 255.208 137.039 249.852C137.039 244.497 164.886 240.155 199.238 240.155C233.589 240.155 261.436 244.497 261.436 249.852Z" fill="#ECF2EE"/>
<path d="M162.613 248.338C162.574 247.712 162.537 247.079 162.657 246.464C162.778 245.849 163.077 245.243 163.593 244.873C164.314 244.358 165.284 244.394 166.177 244.382C169.194 244.339 172.194 243.451 174.732 241.85C177.269 240.251 180.122 238.342 180.628 235.427C180.762 234.654 181.068 233.886 181.647 233.346C182.226 232.808 183.117 232.549 183.855 232.847C184.593 233.148 185.041 234.083 184.671 234.777C186.645 235.293 188.828 234.99 190.576 233.955C190.997 234.208 191.24 234.719 191.214 235.2C191.188 235.684 191.012 236.144 190.904 236.615C190.588 237.994 190.873 239.439 191.307 240.787C191.742 242.135 192.327 243.441 192.634 244.821C192.94 246.204 192.943 247.714 192.257 248.956C187.917 250.057 183.48 250.188 178.997 250.241C173.289 250.311 167.956 250.305 162.613 248.338Z" fill="#97AEB6"/>
<path d="M206.738 248.927C206.706 248.409 206.675 247.885 206.775 247.375C206.875 246.864 207.121 246.362 207.55 246.056C208.148 245.628 208.952 245.66 209.692 245.649C212.193 245.612 214.679 244.877 216.782 243.55C218.886 242.225 221.25 240.643 221.669 238.226C221.78 237.587 222.034 236.948 222.515 236.502C222.994 236.056 223.732 235.841 224.344 236.09C224.955 236.337 225.327 237.112 225.021 237.687C226.657 238.115 228.466 237.864 229.916 237.006C230.263 237.216 230.466 237.639 230.444 238.039C230.423 238.439 230.276 238.82 230.187 239.211C229.926 240.354 230.161 241.552 230.522 242.669C230.882 243.786 231.366 244.868 231.621 246.013C231.874 247.157 231.878 248.41 231.308 249.44C227.711 250.351 224.033 250.461 220.318 250.505C215.588 250.562 211.167 250.557 206.738 248.927Z" fill="#97AEB6"/>
<path d="M198.786 63.4869C199.096 70.8407 198.706 78.2246 197.623 85.5082C195.591 76.5624 192.423 67.6713 189.638 58.9238C187.852 59.3583 185.604 59.9153 184.225 61.1107C185.39 73.6994 189.805 87.1882 196.551 97.961C198.581 97.8195 200.539 97.0073 201.952 95.5691C203.364 94.132 204.377 92.3707 205.32 90.6016C208.214 85.1573 210.574 79.44 212.354 73.5545C210.82 68.0322 204.583 64.1943 198.786 63.4869Z" fill="#EFC992"/>
<path d="M228.893 41.7896C233.555 46.0853 238.857 49.277 243.441 53.6964C248.024 58.1158 251.998 64.2197 252.458 71.3317C253.005 79.7784 248.544 87.4775 243.604 93.4243C238.663 99.371 232.907 104.614 229.585 112.052C226.623 89.7112 225.221 63.9723 228.893 41.7896Z" fill="#EFC992"/>
<path fill-rule="evenodd" clip-rule="evenodd" d="M230.774 241.114H219.197C221.121 211.591 221.515 181.972 220.376 152.408C220.83 151.254 221.277 150.098 221.716 148.942C224.341 145.907 226.611 142.399 229.348 139.636C235.045 133.885 239.606 127.073 242.798 119.694C241.922 113.286 239.639 106.998 235.634 101.981C235.684 102.044 235.734 102.107 235.784 102.171C240.399 108.053 242.684 115.641 243.135 123.114C243.674 132.076 241.827 141.001 239.771 149.75C237.714 158.499 235.088 167.77 235.805 176.72C237.525 198.18 235.809 220.163 230.774 241.114ZM235.627 101.974C235.62 101.964 235.613 101.956 235.606 101.947C235.613 101.956 235.62 101.964 235.627 101.974ZM235.596 101.935C235.589 101.926 235.584 101.918 235.577 101.91C235.584 101.918 235.589 101.927 235.596 101.935ZM235.565 101.896C235.559 101.888 235.553 101.88 235.546 101.872C235.553 101.88 235.559 101.888 235.565 101.896ZM235.534 101.857C235.528 101.849 235.522 101.842 235.517 101.835C235.522 101.842 235.528 101.849 235.534 101.857ZM235.501 101.816C235.496 101.81 235.49 101.803 235.486 101.796C235.49 101.803 235.496 101.81 235.501 101.816ZM235.456 101.761C235.452 101.755 235.447 101.751 235.444 101.746C235.448 101.751 235.452 101.755 235.456 101.761ZM235.424 101.722C235.42 101.716 235.416 101.712 235.412 101.707C235.415 101.712 235.42 101.717 235.424 101.722ZM235.393 101.683C235.388 101.678 235.385 101.673 235.38 101.668C235.385 101.673 235.388 101.678 235.393 101.683ZM235.36 101.643C235.356 101.638 235.353 101.635 235.349 101.63C235.353 101.635 235.356 101.638 235.36 101.643ZM235.326 101.603C235.323 101.599 235.321 101.596 235.318 101.593C235.321 101.596 235.323 101.599 235.326 101.603ZM235.29 101.559C235.289 101.557 235.288 101.556 235.286 101.555C235.288 101.556 235.289 101.557 235.29 101.559ZM235.187 101.434C235.186 101.434 235.186 101.433 235.185 101.432C235.186 101.433 235.186 101.434 235.187 101.434ZM235.153 101.395C235.152 101.394 235.152 101.393 235.15 101.392C235.152 101.393 235.153 101.394 235.153 101.395ZM235.119 101.354L235.117 101.353L235.119 101.354Z" fill="#3B4847"/>
<path fill-rule="evenodd" clip-rule="evenodd" d="M188.388 239.355C189.748 239.372 191.11 239.346 192.465 239.261C195.642 231.2 198.365 223.703 200.284 214.285C202.102 205.364 201.853 193.105 204.282 185.171C209.295 168.799 216.594 156.734 228.861 144.349C236.549 135.821 242.128 127.15 242.786 119.758C243.521 111.502 239.617 106.841 235.612 101.825C235.61 101.821 235.607 101.819 235.605 101.817L235.598 101.807L235.592 101.799L235.585 101.79L235.579 101.783L235.574 101.778L235.57 101.773C235.565 101.766 235.56 101.76 235.555 101.753C235.551 101.748 235.547 101.745 235.544 101.739L235.524 101.716C235.521 101.711 235.517 101.705 235.512 101.7L235.506 101.692L235.495 101.679L235.484 101.666L235.479 101.66L235.464 101.64C235.456 101.631 235.448 101.62 235.44 101.611L235.435 101.604L235.422 101.59L235.403 101.565L235.399 101.56L235.39 101.551L235.386 101.545L235.382 101.54L235.371 101.526L235.368 101.523L235.365 101.519L235.358 101.512C235.352 101.504 235.345 101.495 235.338 101.486L235.328 101.474L235.304 101.446C235.301 101.443 235.299 101.439 235.296 101.436L235.269 101.402C235.267 101.4 235.266 101.399 235.264 101.398L235.165 101.278C235.164 101.278 235.164 101.277 235.163 101.276L235.131 101.239L235.129 101.235L235.097 101.198C234.715 100.745 234.318 100.306 233.908 99.8778C233.695 99.4252 233.47 98.9777 233.234 98.536C229.301 96.6031 225.057 95.6428 220.753 95.6428C219.478 95.6428 218.197 95.7275 216.917 95.8957C216.825 96.192 216.75 96.4996 216.708 96.8258C214.071 117.291 208.68 137.422 203.302 157.508C196.038 184.635 188.796 211.68 188.388 239.355ZM220.222 118.397C220.638 116.421 221.057 114.436 220.458 112.764C223.557 113.571 226.764 113.979 229.971 113.979C230.791 113.979 231.609 113.952 232.427 113.899C232.645 115.725 231.571 118.705 230.808 120.821C230.671 121.202 230.543 121.554 230.436 121.867C229.726 123.921 228.193 125.788 226.1 126.492C225.568 126.671 225.002 126.759 224.434 126.759C222.772 126.759 221.108 126.006 220.294 124.6C219.283 122.856 219.751 120.633 220.222 118.397Z" fill="#526261"/>
<path d="M235.206 101.824C235.204 101.821 235.202 101.819 235.199 101.817C235.202 101.819 235.204 101.821 235.206 101.824ZM235.179 101.79C235.176 101.785 235.172 101.781 235.169 101.778C235.172 101.782 235.176 101.785 235.179 101.79ZM235.149 101.753C235.145 101.747 235.141 101.744 235.138 101.739C235.141 101.743 235.146 101.749 235.149 101.753ZM235.119 101.715C235.115 101.711 235.111 101.704 235.106 101.7C235.111 101.705 235.115 101.71 235.119 101.715ZM235.089 101.678C235.083 101.672 235.079 101.665 235.073 101.659C235.079 101.665 235.083 101.672 235.089 101.678ZM235.058 101.639C235.048 101.628 235.038 101.615 235.029 101.604C235.038 101.616 235.048 101.627 235.058 101.639ZM235.016 101.589C235.01 101.58 235.003 101.573 234.997 101.565C235.003 101.573 235.01 101.58 235.016 101.589ZM234.984 101.55C234.978 101.541 234.972 101.534 234.965 101.526C234.971 101.534 234.978 101.541 234.984 101.55ZM234.953 101.511C234.946 101.504 234.939 101.495 234.932 101.486C234.939 101.495 234.946 101.504 234.953 101.511ZM234.922 101.473C234.914 101.464 234.906 101.454 234.898 101.446C234.906 101.454 234.914 101.464 234.922 101.473ZM234.89 101.436C234.881 101.424 234.872 101.413 234.863 101.402C234.872 101.413 234.881 101.424 234.89 101.436ZM234.858 101.398C234.825 101.358 234.792 101.317 234.759 101.277C234.792 101.317 234.825 101.358 234.858 101.398ZM234.757 101.275C234.747 101.263 234.736 101.251 234.725 101.238C234.736 101.251 234.747 101.263 234.757 101.275ZM234.723 101.235C234.713 101.223 234.703 101.211 234.691 101.197C234.701 101.209 234.713 101.223 234.723 101.235ZM234.69 101.196C234.263 100.69 233.816 100.199 233.352 99.7222C233.817 100.199 234.263 100.69 234.69 101.196Z" fill="#CC9E74"/>
<path fill-rule="evenodd" clip-rule="evenodd" d="M189.105 239.371C186.006 239.371 182.903 239.084 179.893 238.403C179.576 238.332 179.262 238.256 178.947 238.176C178.763 238.129 178.579 238.08 178.396 238.03C178.456 237.749 178.518 237.467 178.579 237.186C184.775 208.59 190.971 179.998 197.168 151.401C198.727 144.211 200.286 137.014 201.844 129.824C204.195 118.978 206.545 108.135 208.896 97.2872C209.518 97.4632 210.018 97.5356 210.452 97.5356C211.939 97.5356 212.645 96.6867 214.819 96.2444C216.788 95.8445 218.767 95.6428 220.735 95.6428C223.154 95.6428 225.557 95.947 227.894 96.5563C229.716 97.0309 231.5 97.6916 233.225 98.5393C233.439 98.9404 233.643 99.3459 233.839 99.7548C235.803 103.876 236.817 108.426 236.817 112.975C236.817 107.974 235.592 102.971 233.225 98.5393C229.292 96.6065 225.048 95.6462 220.744 95.6462C219.469 95.6462 218.189 95.7308 216.908 95.8991C216.816 96.1954 216.741 96.5029 216.699 96.8293C210.5 144.935 189.089 191.191 188.379 239.359C188.65 239.362 188.923 239.364 189.195 239.364C190.284 239.364 191.372 239.332 192.456 239.264C192.169 239.282 191.884 239.297 191.597 239.311C190.769 239.35 189.936 239.371 189.105 239.371Z" fill="#5E6B6A"/>
<path d="M201.71 211.597V211.596C203.469 202.967 204.26 194.137 204.148 185.397C204.26 194.137 203.468 202.968 201.71 211.597Z" fill="#C9CBE3"/>
<path d="M196.714 228.829V228.828C198.694 223.466 200.247 217.936 201.39 212.322V212.323C200.247 217.938 198.695 223.466 196.714 228.829Z" fill="#ADB2E0"/>
<path d="M191.719 239.485C193.497 235.967 195.066 232.345 196.431 228.642V228.643C195.066 232.345 193.496 235.968 191.719 239.485Z" fill="#C9CBE3"/>
<path d="M210.224 17.5025C208.936 22.7307 208.868 28.243 210.024 33.5001C214.281 34.0349 218.964 33.0133 221.679 29.7547C224.393 26.4962 224.943 21.5343 222.652 17.976C220.362 14.4178 214.045 15.5864 210.224 17.5025Z" fill="#F4D3A1"/>
<path d="M210.038 18.1275C210.038 18.1275 210.038 18.1275 210.038 18.1274C210.038 18.1275 210.038 18.1275 210.038 18.1275Z" fill="#B3B5CA"/>
<path d="M219.256 31.7022C216.692 28.1417 213.189 25.2496 209.205 23.3201C209.355 21.4519 209.65 19.5948 210.096 17.7722C210.099 17.7577 210.103 17.7421 210.107 17.7276C211.061 17.2497 212.169 16.8186 213.332 16.4955C215.437 17.6129 217.197 19.3586 218.256 21.4641C219.757 24.4442 220.638 28.6675 219.256 31.7022Z" fill="#E3B97B"/>
<path d="M218.274 40.0331C212.858 42.0106 207.211 44.1406 203.392 48.3918C200.567 51.5378 198.995 55.613 198.249 59.7394C197.502 63.8658 197.529 68.0847 197.559 72.2768C201.167 73.2873 204.206 74.047 207.956 73.8922C207.565 83.1677 206.303 92.2405 205.913 101.515C216.043 103.93 225.917 103.921 236.108 101.763C232.96 96.4437 232.583 88.5753 233.433 82.4826C234.283 76.391 236.176 70.4765 237.108 64.395C238.041 58.3134 237.931 51.8152 234.999 46.3787C232.068 40.9422 224.154 37.8853 218.274 40.0331Z" fill="#5FDA3E"/>
<path fill-rule="evenodd" clip-rule="evenodd" d="M249.243 76.1159C247.96 71.203 244.976 66.5474 245.393 61.4941C245.858 55.8548 250.542 50.6912 249.273 45.1723C247.95 39.4182 240.814 36.515 239.001 30.8914C237.903 27.4924 238.989 23.8083 238.72 20.2523C238.326 15.0363 234.738 10.1758 229.808 8.17495C226.274 6.7423 222.74 7.90758 219.159 9.29345C217.123 8.49022 214.867 8.1872 212.759 8.7353C210.224 9.39482 207.996 11.4413 207.604 13.9836C207.348 15.6457 207.878 17.3669 208.835 18.7617C209.611 19.8913 210.653 20.8216 211.8 21.5992L211.939 21.764C213.171 23.112 214.949 23.9687 215.929 25.5028C217.508 27.9782 216.46 31.2412 214.985 33.7767C213.511 36.3123 211.587 38.7999 211.455 41.7154C211.331 44.4793 212.851 47.0216 213.685 49.6652C215.42 55.1674 214.16 61.1109 212.65 66.6766C211.141 72.2435 209.369 77.944 210.123 83.6557C210.876 89.3674 214.992 95.1348 220.837 95.7453C226.236 101.705 235.342 102.127 241.934 97.4565C248.525 92.7875 251.257 83.8373 249.243 76.1159Z" fill="#414F4E"/>
<path d="M189.134 61.4399C189.457 59.888 189.78 58.335 190.103 56.7831C190.314 55.7649 190.527 54.7222 190.378 53.695C190.23 52.6656 189.646 51.6363 188.671 51.2274C187.955 48.6328 187.076 45.3442 186.359 42.7496C186.245 42.3363 186.045 41.8461 185.612 41.7937C185.28 41.7525 184.973 42.0232 184.864 42.3329C184.755 42.6426 184.793 42.9824 184.834 43.3077C185.14 45.7753 185.446 48.2429 185.753 50.7094C184.744 51.0057 183.322 51.0781 182.409 51.5895C181.495 52.1008 180.682 52.8517 180.304 53.8142C179.671 55.4296 180.374 57.2511 181.308 58.7194C182.241 60.1888 183.43 61.5535 183.893 63.2234C186.002 64.0935 188.677 63.6367 189.134 61.4399Z" fill="#EFC992"/>
<path fill-rule="evenodd" clip-rule="evenodd" d="M223.769 127.859C221.842 127.859 219.912 126.987 218.968 125.359C216.761 121.556 220.638 115.78 219.158 111.655C222.751 112.589 226.469 113.061 230.187 113.061C231.138 113.061 232.087 113.03 233.034 112.968C233.333 115.463 231.546 119.816 230.726 122.195C229.904 124.572 228.126 126.734 225.7 127.55C225.083 127.757 224.426 127.859 223.769 127.859Z" fill="#3F4F4D"/>
</g>
<defs>
<linearGradient id="paint0_linear" x1="100.514" y1="199.37" x2="114.071" y2="198.541" gradientUnits="userSpaceOnUse">
<stop stop-color="#B1BABA"/>
<stop offset="1" stop-color="#E3EDEC"/>
</linearGradient>
<linearGradient id="paint1_linear" x1="76.6347" y1="166.787" x2="76.7066" y2="179.298" gradientUnits="userSpaceOnUse">
<stop stop-color="#A5B0B0"/>
<stop offset="1" stop-color="#8D9695"/>
</linearGradient>
<linearGradient id="paint2_linear" x1="42.1951" y1="179.497" x2="103.835" y2="247.895" gradientUnits="userSpaceOnUse">
<stop stop-color="#E7EEED"/>
<stop offset="1" stop-color="#DDE3E3"/>
</linearGradient>
<clipPath id="clip0">
<rect width="270" height="260" fill="white"/>
</clipPath>
</defs>
</svg>
