{
  "description": "Технологии автономной торговли",
  "certificates": "Сертификаты на разработки зарегистрированы: 2020619020, 2020619021, 2020618645, 2020618646, 2020618899, 2020618422. ООО \"Брискли\" ИНН 9701114958",
  "info": null,
  "year": "© Briskly, 2022. ООО «Брискли» ИНН 9701114958",
  "contact": {
    "button": null,
    "phone": "8-800-222-61-09",
    "phoneAction": "tel:+78002226109",
    "link": null
  },
  "additionalLogo": {
    "image": "img/social-networks/social-sk.png",
    "link": "http://www.sk.ru/",
    "text": null
  },
  "icons": [
    "mastercard.png",
    "visa.png",
    "google-play.png",
    "mir.png",
    "sbp.png",
    "pci.png",
    "iso.png"
  ],
  "copy": "Google Pay и логотип Google Pay являются товарными знаками корпорации Google Inc. Логотип MasterCard является товарным знаком компании MasterCard. Логотип Visa является товарным знаком компании Visa. Логотип Мир является товарным знаком компании Мир. Логотип СБП является товарным знаком компании СБП. Логотип PCI является товарным знаком компании PCI. Логотип ISO является товарным знаком компании ISO.",
  "bottomText": "Перейти на сайт приложения для оплаты товаров без очередей B-Pay",
  "bottomLink": "https://app.briskly.online/",
  "social": [
    {
      "icon": "social-tiktok",
      "link": "https://www.tiktok.com/@briskly_house"
    },
    {
      "icon": "social-telegram",
      "link": "https://t.me/Brskl"
    },
    {
      "icon": "social-vk",
      "link": "https://vk.com/briskly.online"
    }
  ],
  "navigationOne": [
    {
      "link": "https://b-pay.online/",
      "title": "Приложение B-Pay",
      "target": "_blank"
    },
    {
      "link": "https://briskly.business/",
      "title": "Кабинет Briskly Business",
      "target": "_blank"
    },
    {
      "link": "https://linnafrost.ru/",
      "title": "Завод Briskly Factory",
      "target": "_blank"
    },
    {
      "link": "https://linnafrost.ru/catalog",
      "title": "Каталог",
      "target": "_blank"
    },
    {
      "link": "https://briskly.online/briskly-for-shops/",
      "title": "Запуск Scan&Go в магазине",
      "target": "_blank"
    },
    {
      "link": "/micromarket/",
      "title": "Умные микромаркеты",
      "target": "_blank"
    }
  ],
  "navigationTwo": [
    {
      "link": "https://briskly.online/partners",
      "title": "Стать дилером",
      "target": "_blank"
    },
    {
      "link": "https://t.me/Brskl",
      "title": "Briskly в телеграм",
      "target": "_blank"
    },
    {
      "link": "https://briskly.online/user_doc",
      "title": "Политика конфиденциальности",
      "target": "_blank"
    },
    {
      "link": "https://briskly.online/wp-content/uploads/2019/08/privacy.pdf",
      "title": "Обработка персональных данных",
      "target": "_blank"
    },
    {
      "link": "https://briskly.online/user_doc",
      "title": "Пользовательское соглашение",
      "target": "_blank"
    },
    {
      "link": "https://briskly.online/contacts",
      "title": "Контакты",
      "target": "_blank"
    }
  ]
}
