<svg width="24" height="24" viewBox="0 0 24 24" fill="none" xmlns="http://www.w3.org/2000/svg">
<path fill-rule="evenodd" clip-rule="evenodd" d="M6.46246 13.3987L7.86246 11.9987L10.1958 14.332L17.1958 7.33203L18.5958 8.73203L10.1958 17.132L6.46246 13.3987V13.3987Z" fill="#22C951"/>
</svg>
