<svg width="6" height="5" viewBox="0 0 6 5" fill="none" xmlns="http://www.w3.org/2000/svg">
<path fill-rule="evenodd" clip-rule="evenodd" d="M0.218692 0.734403C0.0785821 0.885548 0 1.08955 0 1.30212C0 1.51469 0.0785821 1.7187 0.218692 1.86984L2.42301 4.24235C2.58651 4.41438 2.79802 4.5 3.00728 4.5C3.21653 4.5 3.42429 4.41438 3.58404 4.24235L5.78161 1.87784C5.92154 1.7266 6 1.52264 6 1.31012C6 1.09761 5.92154 0.893651 5.78161 0.742404C5.71273 0.667841 5.63065 0.60863 5.54013 0.568215C5.44961 0.5278 5.35247 0.506988 5.25434 0.506988C5.15622 0.506988 5.05907 0.5278 4.96855 0.568215C4.87803 0.60863 4.79595 0.667841 4.72708 0.742404L3.00353 2.5964L1.27322 0.734403C1.20419 0.66013 1.12206 0.601177 1.03157 0.560945C0.941068 0.520713 0.844 0.5 0.745957 0.5C0.647918 0.5 0.550849 0.520713 0.460352 0.560945C0.369855 0.601177 0.287721 0.66013 0.218692 0.734403Z" fill="#C2C5D3"/>
</svg>
