<svg width="1018" height="1013" viewBox="0 0 1018 1013" fill="none" xmlns="http://www.w3.org/2000/svg">
<g opacity="0.3" filter="url(#filter0_f)">
<ellipse rx="345" ry="345" transform="matrix(-0.829038 -0.559193 0.565067 -0.825045 508.966 506.438)" fill="url(#paint0_linear)" fill-opacity="0.69"/>
</g>
<defs>
<filter id="filter0_f" x="0.885406" y="0.634918" width="1016.16" height="1011.61" filterUnits="userSpaceOnUse" color-interpolation-filters="sRGB">
<feFlood flood-opacity="0" result="BackgroundImageFix"/>
<feBlend mode="normal" in="SourceGraphic" in2="BackgroundImageFix" result="shape"/>
<feGaussianBlur stdDeviation="80.955" result="effect1_foregroundBlur"/>
</filter>
<linearGradient id="paint0_linear" x1="222" y1="247.5" x2="492.394" y2="473.203" gradientUnits="userSpaceOnUse">
<stop stop-color="#39E569"/>
<stop offset="1" stop-color="#48CFFC"/>
</linearGradient>
</defs>
</svg>
