<svg width="1920" height="116" viewBox="0 0 1920 116" fill="none" xmlns="http://www.w3.org/2000/svg">
<path d="M1920 0H0V22.0592C126.835 88.008 361.03 133.013 627.183 108.01C730.425 98.3115 829.872 82.1503 930.315 65.827C1094.59 39.1302 1261.53 12 1452.11 12C1631.38 12 1821.63 58.5049 1920 98.0091V0Z" fill="#f0f3f8"/>
</svg>
