<svg width="1923" height="144" viewBox="0 0 1923 144" fill="none" xmlns="http://www.w3.org/2000/svg">
<g clip-path="url(#clip0)">
<g filter="url(#filter0_d)">
<path d="M1387.5 57.0724C1104.5 57.0725 922.895 95.3398 529 95.3398C278.795 95.3398 82.4911 48.272 1 10.0086L0 -707.779C157 -732.279 347.5 -723.221 528.5 -682.779C709.373 -642.366 1037.04 -633.374 1305 -707.779C1537.5 -772.337 1735.5 -754.837 1922.5 -754.837L1921.29 143.873C1796.36 91.4953 1597.1 57.0724 1387.5 57.0724Z" fill="white"/>
</g>
</g>
<defs>
<filter id="filter0_d" x="-12" y="-765" width="1946.5" height="924.873" filterUnits="userSpaceOnUse" color-interpolation-filters="sRGB">
<feFlood flood-opacity="0" result="BackgroundImageFix"/>
<feColorMatrix in="SourceAlpha" type="matrix" values="0 0 0 0 0 0 0 0 0 0 0 0 0 0 0 0 0 0 127 0"/>
<feOffset dy="4"/>
<feGaussianBlur stdDeviation="6"/>
<feColorMatrix type="matrix" values="0 0 0 0 0.0980392 0 0 0 0 0.105882 0 0 0 0 0.137255 0 0 0 0.15 0"/>
<feBlend mode="normal" in2="BackgroundImageFix" result="effect1_dropShadow"/>
<feBlend mode="normal" in="SourceGraphic" in2="effect1_dropShadow" result="shape"/>
</filter>
<clipPath id="clip0">
<rect width="1923" height="144" fill="white"/>
</clipPath>
</defs>
</svg>
