<svg width="63" height="40" viewBox="0 0 63 40" fill="none" xmlns="http://www.w3.org/2000/svg">
<path d="M27.2457 28.5902H22.1523L25.3381 10.3308H30.4311L27.2457 28.5902Z" fill="#0E85E9"/>
<path d="M45.7095 10.7774C44.7048 10.4079 43.1114 10 41.1412 10C36.1113 10 32.5694 12.4863 32.5477 16.0409C32.5059 18.6634 35.0836 20.1201 37.0115 20.9945C38.9821 21.8881 39.6519 22.4713 39.6519 23.2678C39.6319 24.491 38.0596 25.0549 36.5932 25.0549C34.5597 25.0549 33.4701 24.7642 31.8143 24.0836L31.1436 23.7919L30.4309 27.8907C31.6255 28.3952 33.8264 28.8429 36.1113 28.8625C41.4556 28.8625 44.9349 26.4147 44.9761 22.6267C44.9964 20.5481 43.6353 18.9554 40.7008 17.654C38.9194 16.8185 37.8284 16.2551 37.8284 15.4003C37.8493 14.6232 38.7512 13.8272 40.7621 13.8272C42.4179 13.7882 43.6345 14.1572 44.5561 14.5264L45.0168 14.7203L45.7095 10.7774Z" fill="#0E85E9"/>
<path d="M52.4791 22.1216C52.8985 21.0726 54.5126 17.0127 54.5126 17.0127C54.4914 17.0517 54.9312 15.9444 55.1827 15.2646L55.5386 16.8379C55.5386 16.8379 56.5031 21.2086 56.7126 22.1216C55.9166 22.1216 53.4851 22.1216 52.4791 22.1216ZM58.7661 10.3308H54.8264C53.6115 10.3308 52.6885 10.6608 52.1643 11.8458L44.5989 28.5899H49.9431C49.9431 28.5899 50.823 26.3363 51.0121 25.8509C51.5984 25.8509 56.7973 25.8509 57.5515 25.8509C57.6977 26.492 58.1592 28.5899 58.1592 28.5899H62.8751L58.7661 10.3308Z" fill="#0E85E9"/>
<path d="M17.8982 10.3308L12.9102 22.782L12.3651 20.2567C11.4429 17.3429 8.55074 14.1771 5.32324 12.603L9.8921 28.5708H15.2781L23.2839 10.3308H17.8982Z" fill="#0E85E9"/>
<path d="M8.27848 10.3308H0.0838345L0 10.6997C6.39234 12.215 10.6259 15.8674 12.3652 20.2575L10.5838 11.8657C10.2905 10.6995 9.38922 10.3693 8.27848 10.3308Z" fill="#FAA61A"/>
</svg>
