<svg width="17" height="34" viewBox="0 0 17 34" fill="none" xmlns="http://www.w3.org/2000/svg">
<path d="M0.999999 32.5885L16 17.0001L1 1.41162" stroke="#6D818C" stroke-width="2" stroke-linecap="round" stroke-linejoin="round"/>
</svg>
