<svg width="18" height="12" viewBox="0 0 18 12" fill="none" xmlns="http://www.w3.org/2000/svg">
<path d="M1.43781 1.19056C2.17089 0.704896 3.14644 0.813234 3.7551 1.44791L8.65571 6.55792C9.99788 7.95745 10.003 10.1648 8.66727 11.5705V11.5705L1.15058 3.98731C0.34334 3.17294 0.481894 1.82386 1.43781 1.19056V1.19056Z" fill="#5F6268"/>
<path d="M16.7291 1.4621C17.1829 2.16954 17.0843 3.0973 16.492 3.69359L8.66727 11.5705V11.5705C7.41799 10.1062 7.47936 7.93405 8.80931 6.54261L13.9241 1.19138C14.7262 0.352179 16.1022 0.484985 16.7291 1.4621V1.4621Z" fill="#5F6268"/>
</svg>
