<svg width="640" height="640" viewBox="0 0 640 640" fill="none" xmlns="http://www.w3.org/2000/svg">
<path d="M449.341 0H190.659C85.5294 0 0 85.5294 0 190.659V449.341C0 554.471 85.5294 640 190.659 640H449.341C554.471 640 640 554.471 640 449.341V190.659C639.999 85.5294 554.469 0 449.341 0ZM575.616 449.341C575.616 519.08 519.08 575.616 449.341 575.616H190.659C120.92 575.616 64.384 519.08 64.384 449.341V190.659C64.384 120.919 120.92 64.384 190.659 64.384H449.341C519.08 64.384 575.616 120.919 575.616 190.659V449.341Z" fill="#F0F3F8"/>
<path d="M319.999 154.473C228.728 154.473 154.473 228.728 154.473 319.999C154.473 411.269 228.728 485.525 319.999 485.525C411.271 485.525 485.526 411.27 485.526 319.999C485.526 228.727 411.271 154.473 319.999 154.473ZM319.999 421.143C264.139 421.143 218.857 375.86 218.857 320C218.857 264.14 264.141 218.857 319.999 218.857C375.859 218.857 421.142 264.14 421.142 320C421.142 375.859 375.858 421.143 319.999 421.143Z" fill="#F0F3F8"/>
<path d="M485.847 195.38C507.753 195.38 525.511 177.622 525.511 155.716C525.511 133.811 507.753 116.052 485.847 116.052C463.942 116.052 446.184 133.811 446.184 155.716C446.184 177.622 463.942 195.38 485.847 195.38Z" fill="#F0F3F8"/>
</svg>
