<svg width="1233" height="650" viewBox="0 0 1233 650" fill="none" xmlns="http://www.w3.org/2000/svg">
<path d="M96 53.9105C96 35.0401 96 25.6049 100.142 18.3973C103.785 12.0573 109.598 6.90281 116.748 3.67244C124.877 0 135.518 0 156.8 0H1075.36C1096.65 0 1107.29 0 1115.42 3.67244C1122.57 6.90281 1128.38 12.0573 1132.02 18.3973C1136.16 25.6049 1136.16 35.0401 1136.16 53.9106V572.099C1136.16 590.969 1136.16 600.405 1132.02 607.612C1128.38 613.952 1122.57 619.107 1115.42 622.337C1107.29 626.009 1096.65 626.009 1075.36 626.009H156.8C135.518 626.009 124.877 626.009 116.748 622.337C109.598 619.107 103.785 613.952 100.142 607.612C96 600.405 96 590.969 96 572.099V53.9105Z" fill="#37373A"/>
<path fill-rule="evenodd" clip-rule="evenodd" d="M1075.36 7.0935H156.8C146.027 7.0935 138.428 7.09901 132.493 7.52899C126.651 7.95221 123.129 8.75101 120.38 9.99279C114.735 12.5431 110.146 16.6125 107.27 21.6177C105.869 24.0548 104.968 27.1781 104.491 32.358C104.006 37.6207 104 44.3583 104 53.9105V572.099C104 581.651 104.006 588.389 104.491 593.651C104.968 598.831 105.869 601.955 107.27 604.392C110.146 609.397 114.735 613.466 120.38 616.017C123.129 617.258 126.651 618.057 132.493 618.48C138.428 618.91 146.027 618.916 156.8 618.916H1075.36C1086.14 618.916 1093.74 618.91 1099.67 618.48C1105.51 618.057 1109.04 617.258 1111.78 616.017C1117.43 613.466 1122.02 609.397 1124.89 604.392C1126.29 601.955 1127.2 598.831 1127.67 593.651C1128.16 588.389 1128.16 581.651 1128.16 572.099V53.9106C1128.16 44.3583 1128.16 37.6207 1127.67 32.358C1127.2 27.1781 1126.29 24.0548 1124.89 21.6177C1122.02 16.6125 1117.43 12.5431 1111.78 9.99279C1109.04 8.75101 1105.51 7.95221 1099.67 7.52899C1093.74 7.09901 1086.14 7.0935 1075.36 7.0935ZM100.142 18.3973C96 25.6049 96 35.0401 96 53.9105V572.099C96 590.969 96 600.405 100.142 607.612C103.785 613.952 109.598 619.107 116.748 622.337C124.877 626.009 135.518 626.009 156.8 626.009H1075.36C1096.65 626.009 1107.29 626.009 1115.42 622.337C1122.57 619.107 1128.38 613.952 1132.02 607.612C1136.16 600.405 1136.16 590.969 1136.16 572.099V53.9106C1136.16 35.0401 1136.16 25.6049 1132.02 18.3973C1128.38 12.0573 1122.57 6.90281 1115.42 3.67244C1107.29 0 1096.65 0 1075.36 0H156.8C135.518 0 124.877 0 116.748 3.67244C109.598 6.90281 103.785 12.0573 100.142 18.3973Z" fill="#2B2D31"/>
<path fill-rule="evenodd" clip-rule="evenodd" d="M1075.36 2.66006H156.8C146.109 2.66006 138.272 2.66213 132.086 3.11028C125.935 3.5559 121.681 4.42927 118.11 6.04257C111.525 9.01791 106.17 13.7655 102.815 19.6049C100.995 22.7712 100.01 26.5429 99.5078 31.9969C99.0023 37.4821 99 44.4314 99 53.9105V572.099C99 581.578 99.0023 588.527 99.5078 594.012C100.01 599.466 100.995 603.238 102.815 606.404C106.17 612.244 111.525 616.991 118.11 619.967C121.681 621.58 125.935 622.453 132.086 622.899C138.272 623.347 146.109 623.349 156.8 623.349H1075.36C1086.05 623.349 1093.89 623.347 1100.08 622.899C1106.23 622.453 1110.48 621.58 1114.05 619.967C1120.64 616.991 1125.99 612.244 1129.35 606.404C1131.17 603.238 1132.15 599.466 1132.66 594.012C1133.16 588.527 1133.16 581.578 1133.16 572.099V53.9106C1133.16 44.4314 1133.16 37.4821 1132.66 31.997C1132.15 26.5429 1131.17 22.7712 1129.35 19.6049C1125.99 13.7655 1120.64 9.01791 1114.05 6.04257C1110.48 4.42927 1106.23 3.5559 1100.08 3.11028C1093.89 2.66213 1086.05 2.66006 1075.36 2.66006ZM100.142 18.3973C96 25.6049 96 35.0401 96 53.9105V572.099C96 590.969 96 600.405 100.142 607.612C103.785 613.952 109.598 619.107 116.748 622.337C124.877 626.009 135.518 626.009 156.8 626.009H1075.36C1096.65 626.009 1107.29 626.009 1115.42 622.337C1122.57 619.107 1128.38 613.952 1132.02 607.612C1136.16 600.405 1136.16 590.969 1136.16 572.099V53.9106C1136.16 35.0401 1136.16 25.6049 1132.02 18.3973C1128.38 12.0573 1122.57 6.90281 1115.42 3.67244C1107.29 0 1096.65 0 1075.36 0H156.8C135.518 0 124.877 0 116.748 3.67244C109.598 6.90281 103.785 12.0573 100.142 18.3973Z" fill="#424448"/>
<path d="M122.539 36.4668H1110.48V584.225H122.539V36.4668Z" fill="white"/>
<path d="M0.00135755 614.852C0.00135755 614.323 -0.0500047 613.894 0.479126 613.894H1232.56C1233.09 613.894 1232.97 614.323 1232.97 614.852V632.774H0.00135755V614.852Z" fill="url(#paint0_linear)"/>
<path d="M530.293 613.893H702.679V613.893C702.679 622.054 696.064 628.669 687.903 628.669H545.069C536.908 628.669 530.293 622.054 530.293 613.893V613.893Z" fill="url(#paint1_linear)"/>
<path d="M0.000976562 613.072C0.000976562 612.619 0.3685 612.251 0.821863 612.251H1232.15C1232.61 612.251 1232.97 612.619 1232.97 613.072C1232.97 613.526 1233.02 613.893 1232.57 613.893H0.480014C0.0266513 613.893 0.000976562 613.526 0.000976562 613.072Z" fill="#C4C8D0"/>
<path d="M0.0012207 632.774L5.08612 636L10 638.64L13.5 640.084L17.7769 641.458L22.207 642.591L31.2311 644.677L41.5 646.587L54 648.086L65 648.878L75.4396 649.192C68.1391 649.192 47.4544 648.371 31.2311 644.677C16.3994 641.3 14.9506 640.956 7.5 637.5C6.80096 637.175 3.62082 634.982 2.85545 634.63L0.0012207 632.774Z" fill="url(#paint2_linear)"/>
<path d="M0.0012207 632.774L5.08612 636L10 638.64L13.5 640.084L17.7769 641.458L22.207 642.591L31.2311 644.677L41.5 646.587L54 648.086L65 648.878L75.4396 649.192H1157.53C1164.83 649.192 1185.52 648.371 1201.74 644.677C1216.57 641.3 1220.9 639.296 1228.35 635.84C1229.05 635.515 1229.77 635.179 1230.54 634.827L1232.97 632.774H0.0012207Z" fill="url(#paint3_linear)"/>
<defs>
<linearGradient id="paint0_linear" x1="1232.97" y1="623.785" x2="-3.17358e-07" y2="623.784" gradientUnits="userSpaceOnUse">
<stop stop-color="#E8ECF3"/>
<stop offset="0.0001" stop-color="#E2E6EC"/>
<stop offset="0.0200398" stop-color="#585B62"/>
<stop offset="0.108691" stop-color="#B5B9C1"/>
<stop offset="0.492659" stop-color="#C4C8CF"/>
<stop offset="0.854111" stop-color="#B5B9C1"/>
<stop offset="0.980714" stop-color="#5A5D64"/>
<stop offset="1" stop-color="#DDE1E9"/>
</linearGradient>
<linearGradient id="paint1_linear" x1="530.293" y1="621.281" x2="702.679" y2="621.281" gradientUnits="userSpaceOnUse">
<stop stop-color="#575A61"/>
<stop offset="0.161458" stop-color="#DDE1E9"/>
<stop offset="0.776042" stop-color="#DDE1E9"/>
<stop offset="1" stop-color="#F6FAFF"/>
</linearGradient>
<linearGradient id="paint2_linear" x1="623.788" y1="649.193" x2="623.788" y2="632.774" gradientUnits="userSpaceOnUse">
<stop stop-color="#303339"/>
<stop offset="0.9999" stop-color="#61646B"/>
<stop offset="1" stop-color="#E2E6EE"/>
</linearGradient>
<linearGradient id="paint3_linear" x1="623.788" y1="649.193" x2="623.788" y2="632.774" gradientUnits="userSpaceOnUse">
<stop stop-color="#303339"/>
<stop offset="0.9999" stop-color="#61646B"/>
<stop offset="1" stop-color="#E2E6EE"/>
</linearGradient>
</defs>
</svg>
