<svg width="294" height="603" viewBox="0 0 294 603" fill="none" xmlns="http://www.w3.org/2000/svg">
<path d="M1 68.4595C1 67.6534 1.59695 67 2.33333 67H3V94H2.33333C1.59695 94 1 93.3466 1 92.5405V68.4595Z" fill="#565566"/>
<path d="M0 113.158C0 111.966 0.917818 111 2.05 111H3V161H2.05C0.917818 161 0 160.034 0 158.842V113.158Z" fill="#707A87"/>
<path d="M293.902 135.176C293.902 133.974 292.928 133 291.726 133H291.001V200.464H291.726C292.928 200.464 293.902 199.49 293.902 198.288V135.176Z" fill="#707A87"/>
<path d="M0 174.158C0 172.966 0.917818 172 2.05 172H3V222H2.05C0.917818 222 0 221.034 0 219.842V174.158Z" fill="#707A87"/>
<path fill-rule="evenodd" clip-rule="evenodd" d="M6.99687 17.9284C3.72544 24.3839 3 32.8345 3 49.7359V556.715C3 573.616 3 580.067 6.27143 586.523C9.14906 592.201 13.7408 596.818 19.3884 599.711C25.8088 603 34.2136 603 51.0229 603H51.0238H242.976H242.977C259.786 603 268.191 603 274.612 599.711C280.259 596.818 284.851 592.201 287.729 586.523C291 580.067 291 573.616 291 556.715V49.0105C291 32.1091 290.275 23.6584 287.003 17.203C284.125 11.5246 279.534 6.90792 273.886 4.01464C267.466 0.72542 259.061 0 242.251 0H52.4747C35.6648 0 27.2598 0.72542 20.8393 4.01464C15.1916 6.90792 9.8745 12.25 6.99687 17.9284ZM71.558 14.5421C71.5618 14.6252 71.5618 14.7236 71.5618 14.9204C71.5618 15.865 71.5618 16.3373 71.5804 16.7364C71.9919 25.5881 79.0609 32.671 87.8954 33.0833C88.2937 33.1019 88.7651 33.1019 89.7078 33.1019H204.334C205.277 33.1019 205.749 33.1019 206.147 33.0833C214.981 32.671 222.05 25.5881 222.462 16.7364C222.48 16.3373 222.48 15.865 222.48 14.9204V14.9181C222.48 14.7229 222.48 14.6249 222.484 14.5421C222.57 12.698 224.043 11.2224 225.883 11.1365C225.966 11.1326 226.064 11.1326 226.261 11.1326H234.725C251.21 11.1326 262 11.1365 266.688 13.5515C271.733 16.2991 275.858 20.5429 278.529 25.7323C281.168 30.8602 281.077 37.9178 280.932 49.1661C280.895 52.0234 280.855 55.1511 280.855 58.5863V547.828C280.855 551.119 280.898 554.109 280.937 556.834C281.085 567.139 281.179 573.662 278.686 578.38C276.142 583.195 272.212 587.132 267.407 589.681C262.698 592.18 256.187 592.085 245.903 591.937C243.183 591.898 240.199 591.854 236.914 591.854H57.1279C53.8436 591.854 50.8596 591.898 48.1397 591.937C37.8552 592.085 31.3442 592.18 26.6352 589.681C21.8301 587.132 17.9005 583.195 15.3563 578.38C13.0026 573.925 13.0599 566.688 13.1492 555.398C13.1677 553.054 13.1877 550.534 13.1877 547.828V58.5863C13.1877 56.774 13.1837 55.0331 13.1799 53.3627C13.1483 39.4026 13.1279 30.3671 15.5134 25.7323C18.1844 20.5429 22.3098 16.2991 27.3544 13.5515C32.3621 10.8239 39.2794 10.9141 50.3081 11.0579C53.0465 11.0936 56.0384 11.1326 59.3175 11.1326H67.7814C67.9778 11.1326 68.076 11.1326 68.159 11.1365C69.9995 11.2224 71.4722 12.698 71.558 14.5421Z" fill="#99A2AD"/>
<path d="M129.125 13.4993C129.125 12.2974 130.099 11.3231 131.301 11.3231H163.22C164.422 11.3231 165.396 12.2974 165.396 13.4993C165.396 14.7012 164.422 15.6756 163.22 15.6756H131.301C130.099 15.6756 129.125 14.7012 129.125 13.4993Z" fill="#363A43"/>
<path d="M181.786 13.4666C181.786 15.6959 179.941 17.5031 177.664 17.5031C175.387 17.5031 173.541 15.6959 173.541 13.4666C173.541 11.2374 175.387 9.43018 177.664 9.43018C179.941 9.43018 181.786 11.2374 181.786 13.4666Z" fill="#363A43"/>
</svg>
