<svg width="15" height="16" viewBox="0 0 15 16" fill="none" xmlns="http://www.w3.org/2000/svg">
<path d="M10.9929 15.7896C10.4092 15.785 9.82812 15.7079 9.26167 15.5598C7.30551 15.063 5.29115 13.8027 3.59056 12.0111C1.88998 10.2194 0.69121 8.09862 0.219239 6.04147C-0.277729 3.87749 0.0767155 2.02613 1.21616 0.826718L1.5415 0.484252C1.83668 0.174157 2.23668 0 2.65371 0C3.07074 0 3.47074 0.174157 3.76592 0.484252L5.63552 2.45186C5.93029 2.76247 6.09587 3.18356 6.09587 3.62261C6.09587 4.06165 5.93029 4.48274 5.63552 4.79335L4.53115 5.95546C5.06057 6.93337 5.78066 7.91207 6.63169 8.8079C7.48273 9.70373 8.41324 10.4621 9.34189 11.0194L10.4459 9.8569C10.5919 9.70312 10.7653 9.58113 10.9562 9.4979C11.147 9.41467 11.3515 9.37183 11.5581 9.37183C11.7647 9.37183 11.9692 9.41467 12.16 9.4979C12.3509 9.58113 12.5243 9.70312 12.6703 9.8569L14.5395 11.8245C14.8344 12.135 15 12.556 15 12.9951C15 13.4341 14.8344 13.8551 14.5395 14.1656L14.2138 14.5081C13.4105 15.3552 12.2987 15.7896 10.9929 15.7896ZM2.65371 1.17743C2.59414 1.17712 2.53511 1.18933 2.48008 1.21333C2.42504 1.23734 2.37512 1.27267 2.33322 1.31725L2.0075 1.65971C1.15423 2.5579 0.904996 4.01613 1.3057 5.76341C1.72992 7.61437 2.82198 9.5376 4.38041 11.1777C5.93885 12.8177 7.76554 13.9661 9.52433 14.4142C11.1846 14.836 12.5692 14.5737 13.4225 13.6755L13.7478 13.333C13.8328 13.2435 13.8806 13.122 13.8806 12.9954C13.8806 12.8689 13.8328 12.7474 13.7478 12.6579L11.879 10.6903C11.7939 10.6008 11.6785 10.5505 11.5583 10.5505C11.438 10.5505 11.3227 10.6008 11.2376 10.6903L9.83811 12.1634C9.75413 12.2519 9.6456 12.3099 9.52822 12.3291C9.41084 12.3483 9.2907 12.3277 9.18519 12.2703C8.03791 11.6458 6.8813 10.7366 5.84035 9.64089C4.79941 8.54516 3.93755 7.32846 3.34283 6.1208C3.28821 6.00977 3.26857 5.88333 3.28675 5.75977C3.30492 5.63622 3.35998 5.52195 3.44393 5.43351L4.8438 3.96036C4.92881 3.87081 4.97656 3.74939 4.97656 3.6228C4.97656 3.49621 4.92881 3.3748 4.8438 3.28525L2.97458 1.31725C2.93255 1.27275 2.88254 1.23747 2.82746 1.21347C2.77238 1.18947 2.71332 1.17722 2.65371 1.17743Z" fill="#296519"/>
<path d="M11.5909 8.70711C11.4424 8.70711 11.3001 8.64505 11.1951 8.53457C11.0902 8.42409 11.0312 8.27425 11.0312 8.11801C11.0301 7.08454 10.6397 6.09371 9.94545 5.3629C9.25125 4.63208 8.31 4.22096 7.3282 4.21971C7.17978 4.21971 7.03743 4.15765 6.93247 4.04717C6.82752 3.93669 6.76855 3.78685 6.76855 3.63061C6.76855 3.47437 6.82752 3.32453 6.93247 3.21405C7.03743 3.10357 7.17978 3.0415 7.3282 3.0415C9.98728 3.0415 12.1505 5.31937 12.1505 8.11801C12.1505 8.27425 12.0915 8.42409 11.9866 8.53457C11.8816 8.64505 11.7393 8.70711 11.5909 8.70711Z" fill="#296519"/>
<path d="M13.9563 8.70731C13.8079 8.70731 13.6655 8.64525 13.5606 8.53477C13.4556 8.42429 13.3967 8.27445 13.3967 8.11821C13.3967 4.59576 10.673 1.72997 7.3282 1.72997C7.17978 1.72997 7.03743 1.6679 6.93247 1.55742C6.82752 1.44694 6.76855 1.2971 6.76855 1.14086C6.76855 0.984622 6.82752 0.834781 6.93247 0.724303C7.03743 0.613824 7.17978 0.551758 7.3282 0.551758C11.2916 0.551758 14.516 3.94618 14.516 8.11821C14.516 8.27445 14.457 8.42429 14.352 8.53477C14.2471 8.64525 14.1047 8.70731 13.9563 8.70731Z" fill="#296519"/>
</svg>
