<svg width="34" height="20" viewBox="0 0 34 20" fill="none" xmlns="http://www.w3.org/2000/svg">
<path d="M0.302241 2.57426L0.489838 2.79312L14.6639 19.1037C15.1433 19.6561 15.8624 20 16.6649 20C17.4674 20 18.1866 19.6456 18.666 19.1037L32.8296 2.82439L33.0693 2.55341C33.2465 2.29286 33.3507 1.9802 33.3507 1.64669C33.3507 0.739969 32.5795 0 31.6206 0H1.73007C0.771235 0 0 0.739969 0 1.64669C0 1.99062 0.114643 2.3137 0.302241 2.57426Z" fill="white"/>
</svg>
