<svg width="120" height="120" viewBox="0 0 120 120" fill="none" xmlns="http://www.w3.org/2000/svg">
<path d="M104.969 12.479L107.202 21.837H110.919C112.702 21.837 114.147 23.2823 114.147 25.0652V34.75C114.147 36.5329 112.702 37.9783 110.919 37.9783H110.774L109.407 46.587H109.816C111.805 46.587 113.321 48.3676 113.003 50.3307L108.129 80.4612C107.876 82.0248 106.526 83.1739 104.942 83.1739H103.6L101.128 98.7452C100.879 100.313 99.5273 101.467 97.9398 101.467H63.6371C62.0495 101.467 60.6976 100.313 60.4487 98.7452L59.5955 93.3698L60.0182 90.7065H61.3608C62.1345 90.7065 62.8525 90.4323 63.414 89.9695L64.5558 97.163H97.021L99.2415 83.1739H65.3273L66.0236 78.8696H104.026L108.552 50.8913H66.3381L67.0213 46.587H105.049L106.415 37.9783H70.5655V33.6739H109.843V26.1413H62.8499L61.8229 21.837H102.777L100.979 14.3043H60.5977L59.7402 17.8984C59.2906 17.6636 58.7814 17.5326 58.2473 17.5326H55.4023L56.608 12.479C56.9548 11.0255 58.2538 10 59.7482 10H101.829C103.323 10 104.622 11.0255 104.969 12.479Z" fill="white"/>
<path fill-rule="evenodd" clip-rule="evenodd" d="M67.3772 70.502L68.8744 61.2462C70.3107 58.8629 72.5064 56.6792 75.3089 55.0611C82.3858 50.9753 90.6522 52.044 93.7723 57.4482C96.8924 62.8524 93.6847 70.5456 86.6078 74.6314C79.5309 78.7173 71.2646 77.6486 68.1445 72.2444C67.822 71.6859 67.5672 71.1029 67.3772 70.502ZM84.4557 70.9038C81.6616 72.5169 78.7687 73.0284 76.4443 72.7279C75.2812 72.5775 74.3229 72.2408 73.5623 71.7792C73.8543 71.3293 74.2283 70.7857 74.6625 70.2239C75.8276 68.7165 77.1088 67.5018 78.1661 67.1378C78.8867 66.8897 79.6225 66.7386 80.4419 66.6002C80.6259 66.5691 80.8214 66.5377 81.0248 66.505L81.0279 66.5045L81.0293 66.5043L81.0314 66.504L81.0328 66.5038C81.6754 66.4006 82.3955 66.2849 83.0763 66.1288C85.0416 65.6782 87.0712 64.8187 88.9111 62.5825C89.6663 61.6647 89.5345 60.3084 88.6166 59.5532C87.6988 58.7979 86.3425 58.9298 85.5873 59.8476C84.5064 61.1612 83.4219 61.6335 82.1144 61.9333C81.584 62.0549 81.0683 62.1378 80.4691 62.2342L80.465 62.2348L80.4638 62.235C80.2323 62.2722 79.9873 62.3117 79.725 62.356C78.833 62.5067 77.822 62.7039 76.7648 63.0679C74.4104 63.8786 72.4652 66.0283 71.2568 67.5916L71.2553 67.5936C71.2649 66.7531 71.4565 65.8203 71.8757 64.8148C72.7776 62.6516 74.6671 60.4019 77.4611 58.7888C80.2551 57.1757 83.1481 56.6642 85.4725 56.9647C87.7922 57.2646 89.2972 58.3059 90.0446 59.6004C90.792 60.8949 90.9412 62.7189 90.0411 64.8777C89.1391 67.041 87.2497 69.2906 84.4557 70.9038Z" fill="white"/>
<path fill-rule="evenodd" clip-rule="evenodd" d="M26.7149 79.777C29.835 85.1812 38.1013 86.2499 45.1782 82.1641C52.2552 78.0782 55.4628 70.385 52.3427 64.9808C49.2226 59.5766 40.9562 58.5079 33.8793 62.5938C26.8024 66.6796 23.5948 74.3728 26.7149 79.777ZM35.0147 80.2605C37.3391 80.561 40.2321 80.0495 43.0261 78.4364C45.8201 76.8233 47.7095 74.5736 48.6115 72.4104C49.5116 70.2515 49.3624 68.4275 48.615 67.133C47.8676 65.8385 46.3626 64.7972 44.0429 64.4973C41.7185 64.1968 38.8255 64.7083 36.0315 66.3214C33.2375 67.9346 31.348 70.1842 30.4461 72.3475C30.0269 73.3529 29.8353 74.2857 29.8257 75.1263L29.8273 75.1243C31.0356 73.5609 32.9808 71.4112 35.3352 70.6005C36.3924 70.2365 37.4034 70.0393 38.2954 69.8886C38.5577 69.8443 38.8018 69.805 39.0333 69.7678L39.0343 69.7677L39.0393 69.7668C39.6386 69.6705 40.1544 69.5875 40.6848 69.4659C41.9924 69.1661 43.0769 68.6938 44.1577 67.3803C44.9129 66.4624 46.2692 66.3306 47.187 67.0858C48.1049 67.841 48.2367 69.1973 47.4815 70.1151C45.6416 72.3513 43.612 73.2108 41.6468 73.6614C40.9659 73.8175 40.2458 73.9332 39.6032 74.0364L39.6018 74.0366L39.5997 74.0369C39.3947 74.0699 39.1976 74.1015 39.0123 74.1328C38.1929 74.2713 37.4571 74.4223 36.7365 74.6704C35.6792 75.0344 34.398 76.2491 33.2329 77.7565C32.7987 78.3183 32.4247 78.862 32.1327 79.3118C32.8933 79.7734 33.8516 80.1101 35.0147 80.2605Z" fill="white"/>
<path fill-rule="evenodd" clip-rule="evenodd" d="M65.7721 29.3696L63.5394 20.0117C63.1926 18.5582 61.8936 17.5326 60.3992 17.5326H18.3186C16.8243 17.5326 15.5253 18.5582 15.1785 20.0117L12.9457 29.3696H9.22826C7.44534 29.3696 6 30.8149 6 32.5978V42.2826C6 44.0655 7.44534 45.5109 9.22826 45.5109H9.37357L10.74 54.1196H10.3303C8.34169 54.1196 6.82593 55.9002 7.14349 57.8634L12.0175 87.9938C12.2705 89.5574 13.6204 90.7065 15.2044 90.7065H16.5475L19.0191 106.278C19.268 107.846 20.6199 109 22.2075 109H56.5102C58.0977 109 59.4496 107.846 59.6985 106.278L62.1702 90.7065H63.5127C65.0966 90.7065 66.4466 89.5574 66.6995 87.9938L71.5736 57.8634C71.8911 55.9002 70.3754 54.1196 68.3867 54.1196H67.9776L69.3441 45.5109H69.4891C71.272 45.5109 72.7174 44.0655 72.7174 42.2826V32.5978C72.7174 30.8149 71.272 29.3696 69.4891 29.3696H65.7721ZM19.1681 21.837L17.3709 29.3696H61.347L59.5497 21.837H19.1681ZM62.5967 86.4022L67.1226 58.4239H11.5945L16.1204 86.4022H62.5967ZM20.9057 90.7065H57.8119L55.5914 104.696H23.1262L20.9057 90.7065ZM10.3043 41.2065V33.6739H68.413V41.2065H10.3043ZM15.0983 54.1196L13.7318 45.5109H64.9858L63.6194 54.1196H15.0983Z" fill="white"/>
</svg>
