<svg version="1.1" id="Layer_1" xmlns="http://www.w3.org/2000/svg" xmlns:xlink="http://www.w3.org/1999/xlink" x="0px" y="0px"
	 width="105px" height="105px" viewBox="-4.5 -9 105 105" enable-background="new -4.5 -9 105 105" xml:space="preserve">
<path fill="#4acb27" d="M46.994,37.47c0.537,0.56,1.427,0.579,1.987,0.041L59.47,27.449l10.873,8.565
	c0.507,0.4,1.222,0.402,1.731,0.005l15.342-11.922l-0.549,7.137c-0.06,0.773,0.52,1.449,1.293,1.509
	c0.037,0.002,0.072,0.004,0.109,0.004c0.732,0,1.343-0.566,1.398-1.297l0.793-10.313c0.029-0.373-0.092-0.742-0.336-1.024
	c-0.244-0.283-0.591-0.458-0.963-0.484l-11.107-0.793c-0.771-0.05-1.438,0.531-1.493,1.301c-0.055,0.771,0.522,1.441,1.292,1.501
	l7.465,0.533l-14.1,10.957l-10.971-8.641c-0.551-0.433-1.336-0.395-1.842,0.09L47.036,35.484
	C46.476,36.021,46.458,36.91,46.994,37.47z"/>
<path fill="#4acb27" d="M89.327,41.435H76.641c-0.36-0.012-0.71,0.126-0.967,0.381c-0.256,0.255-0.396,0.604-0.387,0.965v41.194
	h-7.625V50.559c0-0.775-0.621-1.499-1.396-1.499H53.58c-0.775,0-1.369,0.724-1.369,1.499v33.416h-7.625v-18.93
	c0.002-0.363-0.144-0.711-0.404-0.965c-0.261-0.252-0.615-0.387-0.978-0.373H30.519c-0.363-0.014-0.716,0.121-0.978,0.373
	c-0.262,0.253-0.408,0.602-0.406,0.965v18.93H4.325c-0.776,0-1.405,0.628-1.405,1.404c0,0.775,0.628,1.404,1.405,1.404H93.8
	c0.776,0,1.404-0.629,1.404-1.404c0-0.776-0.628-1.404-1.404-1.404h-3.062V42.78c-0.004-0.367-0.156-0.717-0.422-0.97
	C90.051,41.556,89.693,41.421,89.327,41.435z M55.021,51.869h9.833v32.105h-9.833V51.869z M31.945,83.975V66.518h9.833v17.457
	H31.945z M78.097,83.975v-39.73h9.832v39.73H78.097z"/>
<path fill="#4acb27" d="M14.889,23.659c1.824-0.005,3.57-0.739,4.851-2.038c1.281-1.298,1.991-3.055,1.971-4.878v-2.205
	c0-3.768-3.055-6.823-6.822-6.823c-3.768,0-6.822,3.055-6.822,6.823v2.205c-0.019,1.823,0.69,3.58,1.971,4.878
	C11.318,22.92,13.064,23.654,14.889,23.659z M10.875,14.539c-0.009-1.084,0.414-2.127,1.176-2.898
	c0.762-0.771,1.801-1.206,2.885-1.209h-0.07c1.082,0.004,2.116,0.44,2.874,1.212c0.758,0.771,1.177,1.814,1.162,2.896v2.205
	c0,2.265-1.749,4.106-4.013,4.106s-4.013-1.842-4.013-4.106V14.539z"/>
<path fill="#4acb27" d="M0.04,47.914c-0.006,1.166,0.459,2.283,1.292,3.1c0.832,0.822,1.96,1.275,3.131,1.256h0.001l0.049,0.045
	c0.64,0,1.271-0.143,1.849-0.418l0.742,24.976c0.065,1.863,1.225,3.511,2.957,4.202c1.732,0.689,3.708,0.291,5.036-1.017
	c1.328,1.312,3.306,1.712,5.039,1.021c1.733-0.689,2.893-2.34,2.956-4.205l0.741-24.927c0.583,0.272,1.22,0.414,1.863,0.413
	c2.455-0.003,4.443-1.993,4.443-4.447V31.039c0.373-3.906-2.475-7.381-6.378-7.783c-0.238-0.024-0.475-0.08-0.713-0.08h-2.902
	c-0.362,0.017-0.705,0.168-0.961,0.425l-4.083,3.854l-3.921-3.848c-0.259-0.264-0.61-0.418-0.98-0.431H7.12
	c-3.947,0.038-7.125,3.25-7.12,7.197c0,0.214,0.04,0.453,0.04,0.667V47.914z M18.389,78.605c-1.044-0.002-1.892-0.848-1.895-1.892
	V51.814c0-0.776-0.629-1.405-1.405-1.405c-0.775,0-1.405,0.629-1.405,1.405v24.898c0.002,1.035-0.828,1.877-1.862,1.892
	c-1.034,0.014-1.887-0.807-1.913-1.841L9.054,47.855h12.087l-0.859,28.9C20.25,77.779,19.415,78.596,18.389,78.605z M4.064,27.293
	c0.804-0.825,1.903-1.296,3.056-1.31h2.51l4.475,4.396c0.009,0.008,0.019,0.039,0.028,0.046c0.019,0.018,0.039,0.046,0.058,0.063
	c0.017,0.014,0.034,0.032,0.05,0.045c0.02,0.015,0.042,0.033,0.063,0.047c0.018,0.012,0.036,0.025,0.054,0.036
	c0.018,0.011,0.042,0.026,0.064,0.038c0.022,0.011,0.039,0.02,0.059,0.03c0.02,0.009,0.042,0.02,0.064,0.029
	c0.022,0.008,0.042,0.016,0.063,0.023c0.021,0.008,0.043,0.016,0.064,0.022c0.022,0.007,0.044,0.013,0.066,0.019
	c0.023,0.005,0.043,0.01,0.065,0.015c0.022,0.004,0.044,0.008,0.067,0.012c0.022,0.003,0.043,0.006,0.066,0.008
	c0.022,0.002,0.045,0.004,0.067,0.006c0.022,0,0.045,0.001,0.068,0.002c0.023,0,0.044,0,0.066-0.001c0.022,0,0.046-0.002,0.07-0.004
	c0.022-0.002,0.042-0.004,0.063-0.007c0.022-0.003,0.047-0.007,0.07-0.011c0.023-0.004,0.042-0.008,0.063-0.013
	c0.021-0.005,0.046-0.012,0.069-0.018c0.023-0.007,0.04-0.013,0.061-0.021c0.02-0.007,0.044-0.016,0.067-0.024
	c0.022-0.01,0.04-0.017,0.06-0.026c0.02-0.01,0.042-0.021,0.063-0.031c0.021-0.01,0.04-0.022,0.06-0.033
	c0.021-0.012,0.04-0.023,0.061-0.036c0.02-0.013,0.039-0.027,0.058-0.041c0.02-0.013,0.038-0.027,0.056-0.042
	c0.019-0.015,0.037-0.03,0.055-0.046c0.01-0.009,0.021-0.061,0.031-0.071l4.657-4.414h2.347c0.144,0,0.291,0.052,0.435,0.066
	c2.375,0.255,4.1,2.38,3.859,4.758c-0.004,0.047-0.012,0.117-0.012,0.164V47.91c0,0.887-0.719,1.605-1.605,1.605
	c-0.886,0-1.605-0.719-1.605-1.605v-3.687l0.017-0.58c0.002-0.089-0.017-0.176-0.017-0.261v-6.809c0-0.776-0.629-1.405-1.405-1.405
	s-1.405,0.629-1.405,1.405v7.604l-0.084,0.869H8.97l-0.064-1.515c-0.002-0.06-0.037-0.092-0.037-0.15v-6.809
	c0-0.776-0.629-1.405-1.405-1.405c-0.775,0-1.405,0.629-1.405,1.405v11.255c0.018,0.428-0.142,0.844-0.439,1.152
	c-0.298,0.309-0.708,0.482-1.136,0.48H4.462c-0.425,0.018-0.839-0.14-1.145-0.436c-0.304-0.289-0.473-0.691-0.468-1.111V30.972
	c0-0.047-0.013-0.095-0.018-0.141c-0.015-0.145-0.028-0.314-0.028-0.458C2.797,29.219,3.251,28.112,4.064,27.293z"/>
<path fill="#4acb27" d="M37.846,22.006c-0.124,0-0.229-0.044-0.314-0.133c-0.086-0.088-0.13-0.195-0.13-0.322v-2.064h-1.407
	c-0.124,0-0.229-0.044-0.315-0.133c-0.086-0.088-0.129-0.196-0.129-0.322v-0.587c0-0.139,0.043-0.246,0.129-0.322
	c0.086-0.088,0.191-0.132,0.315-0.132h1.407v-1.023h-1.407c-0.124,0-0.229-0.044-0.315-0.132c-0.086-0.088-0.129-0.196-0.129-0.322
	v-1.061c0-0.139,0.043-0.246,0.129-0.322c0.086-0.088,0.191-0.132,0.315-0.132h1.407V9.223c0-0.139,0.037-0.252,0.111-0.341
	C37.6,8.794,37.71,8.75,37.846,8.75h4.961c1.493,0,2.666,0.36,3.517,1.08s1.277,1.768,1.277,3.144c0,1.313-0.426,2.311-1.277,2.992
	c-0.852,0.669-2.024,1.003-3.517,1.003h-2.721v1.023h2.999c0.136,0,0.241,0.044,0.315,0.132c0.086,0.076,0.129,0.183,0.129,0.322
	v0.587c0,0.126-0.043,0.233-0.129,0.322c-0.074,0.088-0.179,0.133-0.315,0.133h-2.999v2.064c0,0.126-0.043,0.234-0.13,0.322
	c-0.086,0.088-0.197,0.133-0.333,0.133H37.846z M42.715,14.999c0.716,0,1.259-0.17,1.629-0.511c0.383-0.354,0.574-0.865,0.574-1.534
	c0-0.644-0.185-1.149-0.555-1.515c-0.358-0.378-0.907-0.568-1.647-0.568h-2.666v4.128H42.715z"/>
<path fill="#4acb27" d="M41.522,29.884c8.252,0,14.943-6.69,14.943-14.942C56.465,6.69,49.774,0,41.522,0
	C33.269,0,26.579,6.69,26.58,14.942C26.589,23.19,33.273,29.875,41.522,29.884z M41.522,2.809c6.701,0,12.132,5.432,12.132,12.133
	c0,6.701-5.431,12.133-12.132,12.133c-6.701,0.001-12.133-5.432-12.133-12.133C29.396,8.244,34.824,2.817,41.522,2.809z"/>
</svg>
