<svg width="127" height="90" viewBox="0 0 127 90" fill="none" xmlns="http://www.w3.org/2000/svg">
<rect width="127" height="90" fill="url(#paint0_linear)"/>
<path d="M22 27.0008V35.5327H25.1835V54.4132H22V63H39.3063V54.4132H36.1716V35.5876H39.3063V27.0008C39.3063 27.0008 40.1439 27.0008 22 27.0008ZM64.1306 27.0008H40.8996V35.5876H44.0344V54.4132H40.8996V63H65.2768C70.6598 63 74.0008 58.3952 74.0008 52.4626C74.0008 48.321 72.0059 44.9464 68.5673 43.567C72.505 41.2166 72.6058 37.7407 72.6058 35.8998C72.6058 29.5074 68.317 26.9476 64.1306 27.0008ZM55.0523 35.5876H58.842C60.1897 35.5876 61.2855 36.8177 61.2855 38.2005C61.2855 39.5816 60.1897 40.7036 58.842 40.7036H55.0523C55.0523 40.7036 55.0523 40.5972 55.0523 35.5876ZM55.0523 49.2955H59.2923C60.6384 49.2955 61.7343 50.4192 61.7343 51.8003C61.7343 53.178 60.6384 54.3052 59.2923 54.3052H55.0523C55.0523 54.3052 55.0523 54.3052 55.0523 49.2955ZM103.851 27.0008H86.1586C77.9841 27.0008 74.2952 32.4239 74.2952 37.9929C74.2952 44.538 78.4328 49.2955 84.5621 49.2955H91.3921C92.7366 49.2955 93.834 50.4192 93.834 51.8003C93.834 53.178 92.7366 54.3052 91.3921 54.3052H86.5617V51.0128H75.5437V63H93.9836C100.614 63 105 59.1107 105 52.2584C105 40.4497 95.281 40.7036 92.5383 40.7036H89.0493C87.7032 40.7036 86.6089 39.5816 86.6089 38.2005C86.6089 36.8177 87.7032 35.5876 89.0493 35.5876H92.8311V38.9862H103.851C103.851 38.9862 103.851 38.4492 103.851 27.0008Z" fill="white"/>
<defs>
<linearGradient id="paint0_linear" x1="63.5" y1="0" x2="63.5" y2="90" gradientUnits="userSpaceOnUse">
<stop stop-color="#00A6E7"/>
<stop offset="0.375" stop-color="#00A6E7" stop-opacity="0.67"/>
<stop offset="0.979167" stop-color="#003F5C"/>
</linearGradient>
</defs>
</svg>
