<svg width="100" height="100" viewBox="0 0 100 100" fill="none" xmlns="http://www.w3.org/2000/svg">
<rect width="100" height="100" fill="#63AFF5"/>
<rect x="14" y="48" width="72" height="4" rx="2" fill="white"/>
<path fill-rule="evenodd" clip-rule="evenodd" d="M30 55L30 70H27V55H30ZM33 55L33 70H38L38 55H33ZM38 45H33L33 30H38L38 45ZM41 55L41 70H44V55H41ZM44 45H41L41 30H44V45ZM47 55V70H50V55H47ZM50 45H47V30H50V45ZM56 55V70H61V55H56ZM61 45H56V30H61V45ZM64 55V70H67V55H64ZM67 45H64V30H67V45ZM70 55V70H73V55H70ZM73 45H70V30H73V45ZM30 45H27V30H30L30 45Z" fill="white"/>
<path d="M30 17.5C30 16.6716 29.3284 16 28.5 16H23.6C20.2397 16 18.5596 16 17.276 16.6539C16.1471 17.2292 15.2292 18.1471 14.6539 19.276C14 20.5596 14 22.2397 14 25.6V30.5C14 31.3284 14.6716 32 15.5 32V32C16.3284 32 17 31.3284 17 30.5V25.4C17 23.1598 17 22.0397 17.4359 21.1841C17.8195 20.4314 18.4314 19.8195 19.1841 19.4359C20.0397 19 21.1598 19 23.4 19H28.5C29.3284 19 30 18.3284 30 17.5V17.5Z" fill="white"/>
<path d="M15.5 68C14.6716 68 14 68.6716 14 69.5L14 74.4C14 77.7603 14 79.4404 14.6539 80.724C15.2292 81.8529 16.1471 82.7708 17.276 83.3461C18.5596 84 20.2397 84 23.6 84L28.5 84C29.3284 84 30 83.3284 30 82.5V82.5C30 81.6716 29.3284 81 28.5 81L23.4 81C21.1598 81 20.0397 81 19.1841 80.5641C18.4314 80.1805 17.8195 79.5686 17.4359 78.8159C17 77.9603 17 76.8402 17 74.6L17 69.5C17 68.6716 16.3284 68 15.5 68V68Z" fill="white"/>
<path d="M70 17.5C70 16.6716 70.6716 16 71.5 16H76.4C79.7603 16 81.4404 16 82.724 16.6539C83.8529 17.2292 84.7708 18.1471 85.3461 19.276C86 20.5596 86 22.2397 86 25.6V30.5C86 31.3284 85.3284 32 84.5 32V32C83.6716 32 83 31.3284 83 30.5V25.4C83 23.1598 83 22.0397 82.5641 21.1841C82.1805 20.4314 81.5686 19.8195 80.8159 19.4359C79.9603 19 78.8402 19 76.6 19H71.5C70.6716 19 70 18.3284 70 17.5V17.5Z" fill="white"/>
<path d="M84.5 68C85.3284 68 86 68.6716 86 69.5L86 74.4C86 77.7603 86 79.4404 85.3461 80.724C84.7708 81.8529 83.8529 82.7708 82.724 83.3461C81.4404 84 79.7603 84 76.4 84L71.5 84C70.6716 84 70 83.3284 70 82.5V82.5C70 81.6716 70.6716 81 71.5 81L76.6 81C78.8402 81 79.9603 81 80.8159 80.5641C81.5686 80.1805 82.1805 79.5686 82.5641 78.8159C83 77.9603 83 76.8402 83 74.6L83 69.5C83 68.6716 83.6716 68 84.5 68V68Z" fill="white"/>
</svg>
