<svg width="130" height="130" viewBox="0 0 130 130" fill="none" xmlns="http://www.w3.org/2000/svg">
<rect width="130" height="130" fill="#EE7068"/>
<path fill-rule="evenodd" clip-rule="evenodd" d="M24 59.5718C24 36.7707 46.0759 27.4386 64.9991 41.9493C83.9223 27.4386 106 36.7716 106 59.5718C106 77.1946 77.6154 100 64.9991 100C52.3828 100 24 77.1971 24 59.5718Z" fill="white"/>
</svg>
