<svg width="130" height="130" viewBox="0 0 130 130" fill="none" xmlns="http://www.w3.org/2000/svg">
<rect width="130" height="130" fill="#63AFF5"/>
<path d="M81.2918 64.6533C81.1653 63.0518 79.7557 61.7291 78.1496 61.7045L67.5193 61.5415C66.9018 61.5321 66.2759 60.9885 66.18 60.3784L63.8378 45.488C63.7529 44.9486 63.25 42.7494 60.5043 42.7494L47.285 43.3251C45.5435 43.4007 44.1277 44.2475 44.1277 46.6239C44.1277 46.6239 44.0721 79.7201 44.0044 80.9194L43.5419 89.108C43.48 90.2016 43.0539 91.9718 42.6115 92.9735L37.2608 105.084C36.9076 105.883 36.9134 106.767 37.2768 107.508C37.6402 108.249 38.3348 108.795 39.1829 109.005L40.9642 109.448C41.2293 109.513 41.5068 109.547 41.7888 109.547C43.2267 109.547 44.6023 108.712 45.2117 107.47L50.2979 97.1026C50.8597 95.9575 51.5589 94.0168 51.8568 92.7764L54.7268 80.8211L61.6722 91.4426C62.2449 92.3183 62.8503 93.9988 62.9679 95.0387L64.3105 106.93C64.5015 108.623 66.0432 110 67.7471 110L69.7785 109.993C70.6501 109.99 71.4426 109.642 72.01 109.013C72.5772 108.385 72.8425 107.561 72.7564 106.694L71.3541 92.5558C71.2247 91.252 70.7564 89.272 70.2879 88.0482L64.0645 71.793L64.026 68.3662L78.4901 67.8308C79.2976 67.801 80.0354 67.4552 80.5676 66.8573C81.0998 66.2597 81.3579 65.4868 81.2942 64.6803L81.2918 64.6533ZM67.7471 108.998V108.999V108.998Z" fill="white"/>
<path d="M51.5108 39.607C52.6237 39.607 53.7241 39.4172 54.7814 39.0425C57.2495 38.1692 59.2295 36.3868 60.3568 34.0238C61.1538 32.353 61.4546 30.5334 61.255 28.7384L64.5398 28.3678C65.6844 28.2387 66.8463 27.3257 67.2423 26.2441L68.3425 23.2394C68.5774 22.5975 68.5155 21.9479 68.1726 21.457C67.8382 20.9785 67.2748 20.704 66.6269 20.704C66.5518 20.704 66.4741 20.7076 66.3944 20.7152L56.8964 21.6186C55.3306 20.5872 53.4686 20 51.5098 20C50.3974 20 49.2974 20.1896 48.2396 20.5638C45.7717 21.4378 43.7917 23.2203 42.6643 25.5833C41.5369 27.9463 41.3973 30.6067 42.2713 33.0742C43.655 36.9817 47.3681 39.607 51.5108 39.607Z" fill="white"/>
<path d="M93.0099 54.9477L92.0649 41.3641C91.9526 39.7509 90.5458 38.4387 88.9232 38.4387L70.7655 38.4703C69.9526 38.4717 69.2053 38.7943 68.6613 39.3785C68.1175 39.9626 67.8488 40.7308 67.9055 41.5419L68.8505 55.1254C68.9629 56.7386 70.3696 58.0509 71.9868 58.0509L90.15 58.0192C90.9629 58.0178 91.7101 57.6955 92.2541 57.1112C92.7979 56.527 93.0664 55.7585 93.0099 54.9477Z" fill="white"/>
</svg>
