<svg width="130" height="130" viewBox="0 0 130 130" fill="none" xmlns="http://www.w3.org/2000/svg">
<rect width="130" height="130" fill="#ECB7F4"/>
<path d="M42.3932 69.6667C51.7356 69.6667 58.7864 63.4444 58.7864 52.3333C58.7864 41.3111 51.7356 35 42.3932 35C33.0508 35 26 41.3111 26 52.3333C26 63.4444 33.0508 69.6667 42.3932 69.6667ZM36.4881 98.1111H51.3831L93.5119 35.8889H78.617L36.4881 98.1111ZM42.3932 60.0667C40.4542 60.0667 38.5153 58.2889 38.5153 52.3333C38.5153 46.3778 40.4542 44.6 42.3932 44.6C44.3322 44.6 46.2712 46.3778 46.2712 52.3333C46.2712 58.2889 44.3322 60.0667 42.3932 60.0667ZM87.6068 99C96.9492 99 104 92.7778 104 81.6667C104 70.6444 96.9492 64.3333 87.6068 64.3333C78.2644 64.3333 71.2136 70.6444 71.2136 81.6667C71.2136 92.7778 78.2644 99 87.6068 99ZM87.6068 89.4C85.6678 89.4 83.7288 87.6222 83.7288 81.6667C83.7288 75.7111 85.6678 73.9333 87.6068 73.9333C89.5458 73.9333 91.4848 75.7111 91.4848 81.6667C91.4848 87.6222 89.5458 89.4 87.6068 89.4Z" fill="white"/>
</svg>
